﻿Arabic Numerals
0 1 2 3 4 5 6 7 8 9
--------------------
Malayalam Numerals
൦ ൧ ൨ ൩ ൪ ൫ ൬ ൭ ൮ ൯ 
--------------------
Malayalam numbers
10 ൰
100 ൱
1000 ൲
Quarter ൳
Half ൴
ThreeQuarter ൵
--------------------
Date Marks
10൹
10-ാം
6 ാം
1-ാം, 1-ാമത്തെ, 1ാം, 1ാമത്തെ
--------------------
എടാാാാ എടാാാാാാാാ
ാ ി ു 
--------------------
Dotreph  ൎ   + various glyphs 
ൎഠ
ൎപ
ൎത
ൎവ 
അഥൎവ്വം
തീൎത്ഥം
തീൎത്ഥ് 
ചൎക്ക
നിൎഗ്ഗളം
വൎത്തുളം
ചൎച്ച
ചൎച്ച്
മാൎച്ച്
മാൎത്ത
ഭാൎയ
ഭാൎയ്യ
ദുൎഗ്ഗുണം
അൎദ്ധവൃത്തം 
നിൎലോഭം
നിൎല്ലോഭം
ഉൎവശി
ഉൎവ്വശി
തൎജമ
തൎജ്ജമ
സൂൎയന്‍        
സൂൎയ്യന്‍ 
അൎജ്ജുനന്‍
മാൎജ്ജാരന്‍
--------------------
Rendering glyphs with r4 ( ്ര)
പ്ര
ഥ്ര
ഖ്ര
ക്സ്ര
ന്റ്ര
ബ്ര
പ്പ്ര
സ്പ്ര
സ്പ്രി
സ്പ്രേ
ഗ്ദ്ധ്രോ
ക്ത്ര
സബ്ഗ്രൂപ്പ്
മുഖ്യമന്ത്രി
സ്വാതന്ത്ര്യം     
പ്രസിഡന്റ്
മഞ്ഞപ്പ്രസാദം
സാമ്രാജ്യം
വൈസ്രോയി
അബ്സ്റ്റ്രാക്റ്റ് 
--------------------
ഒന്നു്
ചര്‍ച്ചയ്ക്കു്
ചര്‍ച്ചയ്ക്ക്‍ 
യൗവനം
ഔഷധം
കൌമുദി
--------------------
ആന്റണി
ആന്റി
എന്റുപ്പാപ്പ
എന്റെ
വിന്റേജ്
ആന്റോ
പാന്റ്  
ഹെന്‍റി
എന്‍റിക്കലെക്സി
--------------------
കാറ്റ്
മുറ്റത്ത്
കാറ്റാടി
വറ്റില്ല
അറ്റുപോയി
ഏറ്റെടുത്തു
മാറ്റൊലി 
ലക്ചററോട്
ലാറ്ററൈറ്റ്മണ്ണ് 
--------------------
ക്സ
ബ്സ
ബ്സു
ക്ത
ക്കു
ക്കൂ
യ്ക
യ്ക്ക
യ്ക്കു
യ്ക്കൂ
യ്ത
യ്ക്കു
യ്ത്ത
യ്ത്തു
യ്ന
യ്നു
ല്ക
ല്ക്ക
ല്ക്കു
ല്തു
ല്ത്തൂ
ല്പ
ല്പു
ഷ്ക്ക
ഷ്ക്കു
ഷ്ഠൂ
ഴ്വ
ഭൄ
ഥൃ
ശ്ന
വ്ശ
ശ്ക
ശ്ക്ക
ശ്ദ
ശ്പ
ശ്ബ
ദ്ഗ
ദ്ന
ദ്ല
ദ്ബ
ദ്മ
സ്ഗ
സ്ഹ
ഹ്ത
പ്ത
പ്തു
സ്പ്ലേ
കയ്പ്
കയ്പ്പ്
ആഴ്ച്ച
ആഴ്ച
അജ്മീര്‍
പച്ചപ്പയ്യ്
കല്ല്
ഉവ്വ്
കുറ്റ്യാടി
വയ്യ
യ്യു
വ്വു
വ്വൂ
യ്യൂ
ല്ലു
ല്ലൂ
എല്ലായ്പ്പോഴും
--------------------
'എനിയ്ക്ക്' 
"പപ്പയുടെ സ്വന്തം അപ്പൂസ്" 
"അവനി വാഴ്വ് കിനാവ്"
"അവള്‍ക്ക്"
“മാതൃഭാഷയ്ക്ക്”
“എന്റമ്മേ”
--------------------
പറയ്വോ?
പോയ്വര്വോ?
--------------------
Lorem ipsum dolor sit amet, consectetur adipisicing elit,
sed do eiusmod tempor incididunt ut labore et dolore magna
aliqua. Ut enim ad minim veniam, quis nostrud exercitation ullamco
laboris nisi ut aliquip ex ea commodo consequat. Duis aute irure
dolor in reprehenderit in voluptate velit esse cillum dolore eu
fugiat nulla pariatur. Excepteur sint occaecat cupidatat non
proident, sunt in culpa qui officia deserunt mollit anim id est laborum
